id,active,currency_id/id,name,discount_policy,website_id/id,item_ids/applied_on,item_ids/base,item_ids/compute_price,item_ids/min_quantity,item_ids/categ_id/id,item_ids/price_discount,item_ids/price_max_margin,item_ids/price_min_margin,item_ids/fixed_price,item_ids/percent_price,item_ids/price_surcharge,item_ids/price_round
ooc_fesepsa.product_pricelist_base,True,base.USD,Precios de Lista Público Base,Descuento incluido en el precio,website.default_website,Categoría de producto,Costo,Fórmula,0,ooc_fesepsa.product_category_02020101,-166.67,0.0,0.0,0.0,0.0,0.0,0.0
,,,,,,Categoría de producto,Costo,Fórmula,0,ooc_fesepsa.product_category_10030106,-166.67,0.0,0.0,0.0,0.0,0.0,0.0
,,,,,,Categoría de producto,Costo,Fórmula,0,ooc_fesepsa.product_category_10420102,-166.67,0.0,0.0,0.0,0.0,0.0,0.0
,,,,,,Categoría de producto,Costo,Fórmula,0,ooc_fesepsa.product_category_10610104,-166.67,0.0,0.0,0.0,0.0,0.0,0.0
,,,,,,Categoría de producto,Costo,Fórmula,0,ooc_fesepsa.product_category_14010101,-166.67,0.0,0.0,0.0,0.0,0.0,0.0
,,,,,,Categoría de producto,Costo,Fórmula,0,ooc_fesepsa.product_category_14020101,-166.67,0.0,0.0,0.0,0.0,0.0,0.0
,,,,,,Categoría de producto,Costo,Fórmula,0,ooc_fesepsa.product_category_14030101,-166.67,0.0,0.0,0.0,0.0,0.0,0.0
,,,,,,Categoría de producto,Costo,Fórmula,0,ooc_fesepsa.product_category_14040101,-166.67,0.0,0.0,0.0,0.0,0.0,0.0
,,,,,,Categoría de producto,Costo,Fórmula,0,ooc_fesepsa.product_category_14050101,-166.67,0.0,0.0,0.0,0.0,0.0,0.0
,,,,,,Categoría de producto,Costo,Fórmula,0,ooc_fesepsa.product_category_14060101,-166.67,0.0,0.0,0.0,0.0,0.0,0.0
,,,,,,Categoría de producto,Costo,Fórmula,0,ooc_fesepsa.product_category_14070101,-166.67,0.0,0.0,0.0,0.0,0.0,0.0
,,,,,,Categoría de producto,Costo,Fórmula,0,ooc_fesepsa.product_category_14080102,-166.67,0.0,0.0,0.0,0.0,0.0,0.0
,,,,,,Categoría de producto,Costo,Fórmula,0,ooc_fesepsa.product_category_14090101,-166.67,0.0,0.0,0.0,0.0,0.0,0.0
,,,,,,Categoría de producto,Costo,Fórmula,0,ooc_fesepsa.product_category_14100101,-166.67,0.0,0.0,0.0,0.0,0.0,0.0
,,,,,,Categoría de producto,Costo,Fórmula,0,ooc_fesepsa.product_category_14110101,-166.67,0.0,0.0,0.0,0.0,0.0,0.0
,,,,,,Categoría de producto,Costo,Fórmula,0,ooc_fesepsa.product_category_14140101,-166.67,0.0,0.0,0.0,0.0,0.0,0.0
,,,,,,Categoría de producto,Costo,Fórmula,0,ooc_fesepsa.product_category_14150101,-166.67,0.0,0.0,0.0,0.0,0.0,0.0
,,,,,,Categoría de producto,Costo,Fórmula,0,ooc_fesepsa.product_category_14160101,-166.67,0.0,0.0,0.0,0.0,0.0,0.0
,,,,,,Categoría de producto,Costo,Fórmula,0,ooc_fesepsa.product_category_14170101,-166.67,0.0,0.0,0.0,0.0,0.0,0.0
,,,,,,Categoría de producto,Costo,Fórmula,0,ooc_fesepsa.product_category_14190101,-166.67,0.0,0.0,0.0,0.0,0.0,0.0
,,,,,,Categoría de producto,Costo,Fórmula,0,ooc_fesepsa.product_category_14220101,-166.67,0.0,0.0,0.0,0.0,0.0,0.0
,,,,,,Categoría de producto,Costo,Fórmula,0,ooc_fesepsa.product_category_14230101,-166.67,0.0,0.0,0.0,0.0,0.0,0.0
,,,,,,Categoría de producto,Costo,Fórmula,0,ooc_fesepsa.product_category_14250101,-166.67,0.0,0.0,0.0,0.0,0.0,0.0
,,,,,,Categoría de producto,Costo,Fórmula,0,ooc_fesepsa.product_category_14260101,-166.67,0.0,0.0,0.0,0.0,0.0,0.0
,,,,,,Categoría de producto,Costo,Fórmula,0,ooc_fesepsa.product_category_14270101,-166.67,0.0,0.0,0.0,0.0,0.0,0.0
,,,,,,Categoría de producto,Costo,Fórmula,0,ooc_fesepsa.product_category_14280101,-166.67,0.0,0.0,0.0,0.0,0.0,0.0
,,,,,,Categoría de producto,Costo,Fórmula,0,ooc_fesepsa.product_category_14290101,-166.67,0.0,0.0,0.0,0.0,0.0,0.0
,,,,,,Categoría de producto,Costo,Fórmula,0,ooc_fesepsa.product_category_14300101,-166.67,0.0,0.0,0.0,0.0,0.0,0.0
,,,,,,Categoría de producto,Costo,Fórmula,0,ooc_fesepsa.product_category_14310101,-166.67,0.0,0.0,0.0,0.0,0.0,0.0
,,,,,,Categoría de producto,Costo,Fórmula,0,ooc_fesepsa.product_category_14320101,-166.67,0.0,0.0,0.0,0.0,0.0,0.0
,,,,,,Categoría de producto,Costo,Fórmula,0,ooc_fesepsa.product_category_14360101,-166.67,0.0,0.0,0.0,0.0,0.0,0.0
,,,,,,Categoría de producto,Costo,Fórmula,0,ooc_fesepsa.product_category_14380101,-166.67,0.0,0.0,0.0,0.0,0.0,0.0
,,,,,,Categoría de producto,Costo,Fórmula,0,ooc_fesepsa.product_category_02040101,-62.6016260162601,0.0,0.0,0.0,0.0,0.0,0.0
,,,,,,Categoría de producto,Costo,Fórmula,0,ooc_fesepsa.product_category_04020101,-62.6016260162601,0.0,0.0,0.0,0.0,0.0,0.0
,,,,,,Categoría de producto,Costo,Fórmula,0,ooc_fesepsa.product_category_04030101,-62.6016260162601,0.0,0.0,0.0,0.0,0.0,0.0
,,,,,,Categoría de producto,Costo,Fórmula,0,ooc_fesepsa.product_category_04040102,-62.6016260162601,0.0,0.0,0.0,0.0,0.0,0.0
,,,,,,Categoría de producto,Costo,Fórmula,0,ooc_fesepsa.product_category_04070101,-62.6016260162601,0.0,0.0,0.0,0.0,0.0,0.0
,,,,,,Categoría de producto,Costo,Fórmula,0,ooc_fesepsa.product_category_04080101,-62.6016260162601,0.0,0.0,0.0,0.0,0.0,0.0
,,,,,,Categoría de producto,Costo,Fórmula,0,ooc_fesepsa.product_category_04100101,-62.6016260162601,0.0,0.0,0.0,0.0,0.0,0.0
,,,,,,Categoría de producto,Costo,Fórmula,0,ooc_fesepsa.product_category_08020204,-62.6016260162601,0.0,0.0,0.0,0.0,0.0,0.0
,,,,,,Categoría de producto,Costo,Fórmula,0,ooc_fesepsa.product_category_08120103,-62.6016260162601,0.0,0.0,0.0,0.0,0.0,0.0
,,,,,,Categoría de producto,Costo,Fórmula,0,ooc_fesepsa.product_category_08120205,-62.6016260162601,0.0,0.0,0.0,0.0,0.0,0.0
,,,,,,Categoría de producto,Costo,Fórmula,0,ooc_fesepsa.product_category_08200204,-62.6016260162601,0.0,0.0,0.0,0.0,0.0,0.0
,,,,,,Categoría de producto,Costo,Fórmula,0,ooc_fesepsa.product_category_08220101,-62.6016260162601,0.0,0.0,0.0,0.0,0.0,0.0
,,,,,,Categoría de producto,Costo,Fórmula,0,ooc_fesepsa.product_category_08220204,-62.6016260162601,0.0,0.0,0.0,0.0,0.0,0.0
,,,,,,Categoría de producto,Costo,Fórmula,0,ooc_fesepsa.product_category_08250204,-62.6016260162601,0.0,0.0,0.0,0.0,0.0,0.0
,,,,,,Categoría de producto,Costo,Fórmula,0,ooc_fesepsa.product_category_08270204,-62.6016260162601,0.0,0.0,0.0,0.0,0.0,0.0
,,,,,,Categoría de producto,Costo,Fórmula,0,ooc_fesepsa.product_category_08290104,-62.6016260162601,0.0,0.0,0.0,0.0,0.0,0.0
,,,,,,Categoría de producto,Costo,Fórmula,0,ooc_fesepsa.product_category_08290204,-62.6016260162601,0.0,0.0,0.0,0.0,0.0,0.0
,,,,,,Categoría de producto,Costo,Fórmula,0,ooc_fesepsa.product_category_08310203,-62.6016260162601,0.0,0.0,0.0,0.0,0.0,0.0
,,,,,,Categoría de producto,Costo,Fórmula,0,ooc_fesepsa.product_category_08320103,-62.6016260162601,0.0,0.0,0.0,0.0,0.0,0.0
,,,,,,Categoría de producto,Costo,Fórmula,0,ooc_fesepsa.product_category_08320204,-62.6016260162601,0.0,0.0,0.0,0.0,0.0,0.0
,,,,,,Categoría de producto,Costo,Fórmula,0,ooc_fesepsa.product_category_08330104,-62.6016260162601,0.0,0.0,0.0,0.0,0.0,0.0
,,,,,,Categoría de producto,Costo,Fórmula,0,ooc_fesepsa.product_category_08330204,-62.6016260162601,0.0,0.0,0.0,0.0,0.0,0.0
,,,,,,Categoría de producto,Costo,Fórmula,0,ooc_fesepsa.product_category_09020101,-62.6016260162601,0.0,0.0,0.0,0.0,0.0,0.0
,,,,,,Categoría de producto,Costo,Fórmula,0,ooc_fesepsa.product_category_09050101,-62.6016260162601,0.0,0.0,0.0,0.0,0.0,0.0
,,,,,,Categoría de producto,Costo,Fórmula,0,ooc_fesepsa.product_category_10010102,-62.6016260162601,0.0,0.0,0.0,0.0,0.0,0.0
,,,,,,Categoría de producto,Costo,Fórmula,0,ooc_fesepsa.product_category_10020101,-62.6016260162601,0.0,0.0,0.0,0.0,0.0,0.0
,,,,,,Categoría de producto,Costo,Fórmula,0,ooc_fesepsa.product_category_10030110,-62.6016260162601,0.0,0.0,0.0,0.0,0.0,0.0
,,,,,,Categoría de producto,Costo,Fórmula,0,ooc_fesepsa.product_category_10030206,-62.6016260162601,0.0,0.0,0.0,0.0,0.0,0.0
,,,,,,Categoría de producto,Costo,Fórmula,0,ooc_fesepsa.product_category_10040101,-62.6016260162601,0.0,0.0,0.0,0.0,0.0,0.0
,,,,,,Categoría de producto,Costo,Fórmula,0,ooc_fesepsa.product_category_10050101,-62.6016260162601,0.0,0.0,0.0,0.0,0.0,0.0
,,,,,,Categoría de producto,Costo,Fórmula,0,ooc_fesepsa.product_category_10070104,-62.6016260162601,0.0,0.0,0.0,0.0,0.0,0.0
,,,,,,Categoría de producto,Costo,Fórmula,0,ooc_fesepsa.product_category_10080101,-62.6016260162601,0.0,0.0,0.0,0.0,0.0,0.0
,,,,,,Categoría de producto,Costo,Fórmula,0,ooc_fesepsa.product_category_10090101,-62.6016260162601,0.0,0.0,0.0,0.0,0.0,0.0
,,,,,,Categoría de producto,Costo,Fórmula,0,ooc_fesepsa.product_category_10100101,-62.6016260162601,0.0,0.0,0.0,0.0,0.0,0.0
,,,,,,Categoría de producto,Costo,Fórmula,0,ooc_fesepsa.product_category_10140102,-62.6016260162601,0.0,0.0,0.0,0.0,0.0,0.0
,,,,,,Categoría de producto,Costo,Fórmula,0,ooc_fesepsa.product_category_10150101,-62.6016260162601,0.0,0.0,0.0,0.0,0.0,0.0
,,,,,,Categoría de producto,Costo,Fórmula,0,ooc_fesepsa.product_category_10160101,-62.6016260162601,0.0,0.0,0.0,0.0,0.0,0.0
,,,,,,Categoría de producto,Costo,Fórmula,0,ooc_fesepsa.product_category_10170101,-62.6016260162601,0.0,0.0,0.0,0.0,0.0,0.0
,,,,,,Categoría de producto,Costo,Fórmula,0,ooc_fesepsa.product_category_10180102,-62.6016260162601,0.0,0.0,0.0,0.0,0.0,0.0
,,,,,,Categoría de producto,Costo,Fórmula,0,ooc_fesepsa.product_category_10180204,-62.6016260162601,0.0,0.0,0.0,0.0,0.0,0.0
,,,,,,Categoría de producto,Costo,Fórmula,0,ooc_fesepsa.product_category_10190101,-62.6016260162601,0.0,0.0,0.0,0.0,0.0,0.0
,,,,,,Categoría de producto,Costo,Fórmula,0,ooc_fesepsa.product_category_10200102,-62.6016260162601,0.0,0.0,0.0,0.0,0.0,0.0
,,,,,,Categoría de producto,Costo,Fórmula,0,ooc_fesepsa.product_category_10210101,-62.6016260162601,0.0,0.0,0.0,0.0,0.0,0.0
,,,,,,Categoría de producto,Costo,Fórmula,0,ooc_fesepsa.product_category_10220102,-62.6016260162601,0.0,0.0,0.0,0.0,0.0,0.0
,,,,,,Categoría de producto,Costo,Fórmula,0,ooc_fesepsa.product_category_10230101,-62.6016260162601,0.0,0.0,0.0,0.0,0.0,0.0
,,,,,,Categoría de producto,Costo,Fórmula,0,ooc_fesepsa.product_category_10250102,-62.6016260162601,0.0,0.0,0.0,0.0,0.0,0.0
,,,,,,Categoría de producto,Costo,Fórmula,0,ooc_fesepsa.product_category_10260101,-62.6016260162601,0.0,0.0,0.0,0.0,0.0,0.0
,,,,,,Categoría de producto,Costo,Fórmula,0,ooc_fesepsa.product_category_10270102,-62.6016260162601,0.0,0.0,0.0,0.0,0.0,0.0
,,,,,,Categoría de producto,Costo,Fórmula,0,ooc_fesepsa.product_category_10300201,-62.6016260162601,0.0,0.0,0.0,0.0,0.0,0.0
,,,,,,Categoría de producto,Costo,Fórmula,0,ooc_fesepsa.product_category_10310102,-62.6016260162601,0.0,0.0,0.0,0.0,0.0,0.0
,,,,,,Categoría de producto,Costo,Fórmula,0,ooc_fesepsa.product_category_10320101,-62.6016260162601,0.0,0.0,0.0,0.0,0.0,0.0
,,,,,,Categoría de producto,Costo,Fórmula,0,ooc_fesepsa.product_category_10330101,-62.6016260162601,0.0,0.0,0.0,0.0,0.0,0.0
,,,,,,Categoría de producto,Costo,Fórmula,0,ooc_fesepsa.product_category_10350102,-62.6016260162601,0.0,0.0,0.0,0.0,0.0,0.0
,,,,,,Categoría de producto,Costo,Fórmula,0,ooc_fesepsa.product_category_10360101,-62.6016260162601,0.0,0.0,0.0,0.0,0.0,0.0
,,,,,,Categoría de producto,Costo,Fórmula,0,ooc_fesepsa.product_category_10390101,-62.6016260162601,0.0,0.0,0.0,0.0,0.0,0.0
,,,,,,Categoría de producto,Costo,Fórmula,0,ooc_fesepsa.product_category_10400101,-62.6016260162601,0.0,0.0,0.0,0.0,0.0,0.0
,,,,,,Categoría de producto,Costo,Fórmula,0,ooc_fesepsa.product_category_10420105,-62.6016260162601,0.0,0.0,0.0,0.0,0.0,0.0
,,,,,,Categoría de producto,Costo,Fórmula,0,ooc_fesepsa.product_category_10430101,-62.6016260162601,0.0,0.0,0.0,0.0,0.0,0.0
,,,,,,Categoría de producto,Costo,Fórmula,0,ooc_fesepsa.product_category_10440101,-62.6016260162601,0.0,0.0,0.0,0.0,0.0,0.0
,,,,,,Categoría de producto,Costo,Fórmula,0,ooc_fesepsa.product_category_10470101,-62.6016260162601,0.0,0.0,0.0,0.0,0.0,0.0
,,,,,,Categoría de producto,Costo,Fórmula,0,ooc_fesepsa.product_category_10480101,-62.6016260162601,0.0,0.0,0.0,0.0,0.0,0.0
,,,,,,Categoría de producto,Costo,Fórmula,0,ooc_fesepsa.product_category_10490101,-62.6016260162601,0.0,0.0,0.0,0.0,0.0,0.0
,,,,,,Categoría de producto,Costo,Fórmula,0,ooc_fesepsa.product_category_10510103,-62.6016260162601,0.0,0.0,0.0,0.0,0.0,0.0
,,,,,,Categoría de producto,Costo,Fórmula,0,ooc_fesepsa.product_category_10520101,-62.6016260162601,0.0,0.0,0.0,0.0,0.0,0.0
,,,,,,Categoría de producto,Costo,Fórmula,0,ooc_fesepsa.product_category_10530103,-62.6016260162601,0.0,0.0,0.0,0.0,0.0,0.0
,,,,,,Categoría de producto,Costo,Fórmula,0,ooc_fesepsa.product_category_10550101,-62.6016260162601,0.0,0.0,0.0,0.0,0.0,0.0
,,,,,,Categoría de producto,Costo,Fórmula,0,ooc_fesepsa.product_category_10560101,-62.6016260162601,0.0,0.0,0.0,0.0,0.0,0.0
,,,,,,Categoría de producto,Costo,Fórmula,0,ooc_fesepsa.product_category_10570101,-62.6016260162601,0.0,0.0,0.0,0.0,0.0,0.0
,,,,,,Categoría de producto,Costo,Fórmula,0,ooc_fesepsa.product_category_10590101,-62.6016260162601,0.0,0.0,0.0,0.0,0.0,0.0
,,,,,,Categoría de producto,Costo,Fórmula,0,ooc_fesepsa.product_category_10610106,-62.6016260162601,0.0,0.0,0.0,0.0,0.0,0.0
,,,,,,Categoría de producto,Costo,Fórmula,0,ooc_fesepsa.product_category_10620101,-62.6016260162601,0.0,0.0,0.0,0.0,0.0,0.0
,,,,,,Categoría de producto,Costo,Fórmula,0,ooc_fesepsa.product_category_10640101,-62.6016260162601,0.0,0.0,0.0,0.0,0.0,0.0
,,,,,,Categoría de producto,Costo,Fórmula,0,ooc_fesepsa.product_category_10650101,-62.6016260162601,0.0,0.0,0.0,0.0,0.0,0.0
,,,,,,Categoría de producto,Costo,Fórmula,0,ooc_fesepsa.product_category_10660101,-62.6016260162601,0.0,0.0,0.0,0.0,0.0,0.0
,,,,,,Categoría de producto,Costo,Fórmula,0,ooc_fesepsa.product_category_11040103,-62.6016260162601,0.0,0.0,0.0,0.0,0.0,0.0
,,,,,,Categoría de producto,Costo,Fórmula,0,ooc_fesepsa.product_category_11040204,-62.6016260162601,0.0,0.0,0.0,0.0,0.0,0.0
,,,,,,Categoría de producto,Costo,Fórmula,0,ooc_fesepsa.product_category_11060101,-62.6016260162601,0.0,0.0,0.0,0.0,0.0,0.0
,,,,,,Categoría de producto,Costo,Fórmula,0,ooc_fesepsa.product_category_12060102,-62.6016260162601,0.0,0.0,0.0,0.0,0.0,0.0
,,,,,,Categoría de producto,Costo,Fórmula,0,ooc_fesepsa.product_category_14050102,-62.6016260162601,0.0,0.0,0.0,0.0,0.0,0.0
,,,,,,Categoría de producto,Costo,Fórmula,0,ooc_fesepsa.product_category_14080103,-62.6016260162601,0.0,0.0,0.0,0.0,0.0,0.0
,,,,,,Categoría de producto,Costo,Fórmula,0,ooc_fesepsa.product_category_14100102,-62.6016260162601,0.0,0.0,0.0,0.0,0.0,0.0
,,,,,,Categoría de producto,Costo,Fórmula,0,ooc_fesepsa.product_category_14110102,-62.6016260162601,0.0,0.0,0.0,0.0,0.0,0.0
,,,,,,Categoría de producto,Costo,Fórmula,0,ooc_fesepsa.product_category_14120101,-62.6016260162601,0.0,0.0,0.0,0.0,0.0,0.0
,,,,,,Categoría de producto,Costo,Fórmula,0,ooc_fesepsa.product_category_14130101,-62.6016260162601,0.0,0.0,0.0,0.0,0.0,0.0
,,,,,,Categoría de producto,Costo,Fórmula,0,ooc_fesepsa.product_category_14220103,-62.6016260162601,0.0,0.0,0.0,0.0,0.0,0.0
,,,,,,Categoría de producto,Costo,Fórmula,0,ooc_fesepsa.product_category_14240101,-62.6016260162601,0.0,0.0,0.0,0.0,0.0,0.0
,,,,,,Categoría de producto,Costo,Fórmula,0,ooc_fesepsa.product_category_14340101,-62.6016260162601,0.0,0.0,0.0,0.0,0.0,0.0
,,,,,,Categoría de producto,Costo,Fórmula,0,ooc_fesepsa.product_category_14370102,-62.6016260162601,0.0,0.0,0.0,0.0,0.0,0.0
,,,,,,Categoría de producto,Costo,Fórmula,0,ooc_fesepsa.product_category_15010205,-62.6016260162601,0.0,0.0,0.0,0.0,0.0,0.0
,,,,,,Categoría de producto,Costo,Fórmula,0,ooc_fesepsa.product_category_15020103,-62.6016260162601,0.0,0.0,0.0,0.0,0.0,0.0
,,,,,,Categoría de producto,Costo,Fórmula,0,ooc_fesepsa.product_category_15040206,-62.6016260162601,0.0,0.0,0.0,0.0,0.0,0.0
,,,,,,Categoría de producto,Costo,Fórmula,0,ooc_fesepsa.product_category_04040101,-77.777777777777,0.0,0.0,0.0,0.0,0.0,0.0
,,,,,,Categoría de producto,Costo,Fórmula,0,ooc_fesepsa.product_category_07030102,-77.777777777777,0.0,0.0,0.0,0.0,0.0,0.0
,,,,,,Categoría de producto,Costo,Fórmula,0,ooc_fesepsa.product_category_08010102,-77.777777777777,0.0,0.0,0.0,0.0,0.0,0.0
,,,,,,Categoría de producto,Costo,Fórmula,0,ooc_fesepsa.product_category_08110101,-77.777777777777,0.0,0.0,0.0,0.0,0.0,0.0
,,,,,,Categoría de producto,Costo,Fórmula,0,ooc_fesepsa.product_category_08170101,-77.777777777777,0.0,0.0,0.0,0.0,0.0,0.0
,,,,,,Categoría de producto,Costo,Fórmula,0,ooc_fesepsa.product_category_08210102,-77.777777777777,0.0,0.0,0.0,0.0,0.0,0.0
,,,,,,Categoría de producto,Costo,Fórmula,0,ooc_fesepsa.product_category_08230101,-77.777777777777,0.0,0.0,0.0,0.0,0.0,0.0
,,,,,,Categoría de producto,Costo,Fórmula,0,ooc_fesepsa.product_category_09010101,-77.777777777777,0.0,0.0,0.0,0.0,0.0,0.0
,,,,,,Categoría de producto,Costo,Fórmula,0,ooc_fesepsa.product_category_09070103,-77.777777777777,0.0,0.0,0.0,0.0,0.0,0.0
,,,,,,Categoría de producto,Costo,Fórmula,0,ooc_fesepsa.product_category_10010101,-77.777777777777,0.0,0.0,0.0,0.0,0.0,0.0
,,,,,,Categoría de producto,Costo,Fórmula,0,ooc_fesepsa.product_category_10030109,-77.777777777777,0.0,0.0,0.0,0.0,0.0,0.0
,,,,,,Categoría de producto,Costo,Fórmula,0,ooc_fesepsa.product_category_10110101,-77.777777777777,0.0,0.0,0.0,0.0,0.0,0.0
,,,,,,Categoría de producto,Costo,Fórmula,0,ooc_fesepsa.product_category_10200101,-77.777777777777,0.0,0.0,0.0,0.0,0.0,0.0
,,,,,,Categoría de producto,Costo,Fórmula,0,ooc_fesepsa.product_category_10220101,-77.777777777777,0.0,0.0,0.0,0.0,0.0,0.0
,,,,,,Categoría de producto,Costo,Fórmula,0,ooc_fesepsa.product_category_10240101,-77.777777777777,0.0,0.0,0.0,0.0,0.0,0.0
,,,,,,Categoría de producto,Costo,Fórmula,0,ooc_fesepsa.product_category_10270101,-77.777777777777,0.0,0.0,0.0,0.0,0.0,0.0
,,,,,,Categoría de producto,Costo,Fórmula,0,ooc_fesepsa.product_category_10350101,-77.777777777777,0.0,0.0,0.0,0.0,0.0,0.0
,,,,,,Categoría de producto,Costo,Fórmula,0,ooc_fesepsa.product_category_10410101,-77.777777777777,0.0,0.0,0.0,0.0,0.0,0.0
,,,,,,Categoría de producto,Costo,Fórmula,0,ooc_fesepsa.product_category_10420103,-77.777777777777,0.0,0.0,0.0,0.0,0.0,0.0
,,,,,,Categoría de producto,Costo,Fórmula,0,ooc_fesepsa.product_category_10420104,-77.777777777777,0.0,0.0,0.0,0.0,0.0,0.0
,,,,,,Categoría de producto,Costo,Fórmula,0,ooc_fesepsa.product_category_10500101,-77.777777777777,0.0,0.0,0.0,0.0,0.0,0.0
,,,,,,Categoría de producto,Costo,Fórmula,0,ooc_fesepsa.product_category_10530102,-77.777777777777,0.0,0.0,0.0,0.0,0.0,0.0
,,,,,,Categoría de producto,Costo,Fórmula,0,ooc_fesepsa.product_category_10610105,-77.777777777777,0.0,0.0,0.0,0.0,0.0,0.0
,,,,,,Categoría de producto,Costo,Fórmula,0,ooc_fesepsa.product_category_10630101,-77.777777777777,0.0,0.0,0.0,0.0,0.0,0.0
,,,,,,Categoría de producto,Costo,Fórmula,0,ooc_fesepsa.product_category_10670101,-77.777777777777,0.0,0.0,0.0,0.0,0.0,0.0
,,,,,,Categoría de producto,Costo,Fórmula,0,ooc_fesepsa.product_category_12060101,-77.777777777777,0.0,0.0,0.0,0.0,0.0,0.0
,,,,,,Categoría de producto,Costo,Fórmula,0,ooc_fesepsa.product_category_13030101,-77.777777777777,0.0,0.0,0.0,0.0,0.0,0.0
,,,,,,Categoría de producto,Costo,Fórmula,0,ooc_fesepsa.product_category_14220102,-77.777777777777,0.0,0.0,0.0,0.0,0.0,0.0
,,,,,,Categoría de producto,Costo,Fórmula,0,ooc_fesepsa.product_category_14330101,-77.777777777777,0.0,0.0,0.0,0.0,0.0,0.0
,,,,,,Categoría de producto,Costo,Fórmula,0,ooc_fesepsa.product_category_09060101,-90.4761904761905,0.0,0.0,0.0,0.0,0.0,0.0
,,,,,,Categoría de producto,Costo,Fórmula,0,ooc_fesepsa.product_category_09070101,-90.4761904761905,0.0,0.0,0.0,0.0,0.0,0.0
,,,,,,Categoría de producto,Costo,Fórmula,0,ooc_fesepsa.product_category_10030105,-90.4761904761905,0.0,0.0,0.0,0.0,0.0,0.0
,,,,,,Categoría de producto,Costo,Fórmula,0,ooc_fesepsa.product_category_10070102,-90.4761904761905,0.0,0.0,0.0,0.0,0.0,0.0
,,,,,,Categoría de producto,Costo,Fórmula,0,ooc_fesepsa.product_category_10530101,-90.4761904761905,0.0,0.0,0.0,0.0,0.0,0.0
,,,,,,Categoría de producto,Costo,Fórmula,0,ooc_fesepsa.product_category_10610103,-90.4761904761905,0.0,0.0,0.0,0.0,0.0,0.0
,,,,,,Categoría de producto,Costo,Fórmula,0,ooc_fesepsa.product_category_12010102,-90.4761904761905,0.0,0.0,0.0,0.0,0.0,0.0
,,,,,,Categoría de producto,Costo,Fórmula,0,ooc_fesepsa.product_category_12020102,-90.4761904761905,0.0,0.0,0.0,0.0,0.0,0.0
,,,,,,Categoría de producto,Costo,Fórmula,0,ooc_fesepsa.product_category_12030101,-90.4761904761905,0.0,0.0,0.0,0.0,0.0,0.0
,,,,,,Categoría de producto,Costo,Fórmula,0,ooc_fesepsa.product_category_07010101,-96.0784313725490,0.0,0.0,0.0,0.0,0.0,0.0
,,,,,,Categoría de producto,Costo,Fórmula,0,ooc_fesepsa.product_category_08010101,-96.0784313725490,0.0,0.0,0.0,0.0,0.0,0.0
,,,,,,Categoría de producto,Costo,Fórmula,0,ooc_fesepsa.product_category_08040201,-96.0784313725490,0.0,0.0,0.0,0.0,0.0,0.0
,,,,,,Categoría de producto,Costo,Fórmula,0,ooc_fesepsa.product_category_08080101,-96.0784313725490,0.0,0.0,0.0,0.0,0.0,0.0
,,,,,,Categoría de producto,Costo,Fórmula,0,ooc_fesepsa.product_category_08100101,-96.0784313725490,0.0,0.0,0.0,0.0,0.0,0.0
,,,,,,Categoría de producto,Costo,Fórmula,0,ooc_fesepsa.product_category_08120101,-96.0784313725490,0.0,0.0,0.0,0.0,0.0,0.0
,,,,,,Categoría de producto,Costo,Fórmula,0,ooc_fesepsa.product_category_08140102,-96.0784313725490,0.0,0.0,0.0,0.0,0.0,0.0
,,,,,,Categoría de producto,Costo,Fórmula,0,ooc_fesepsa.product_category_08200101,-96.0784313725490,0.0,0.0,0.0,0.0,0.0,0.0
,,,,,,Categoría de producto,Costo,Fórmula,0,ooc_fesepsa.product_category_08250101,-96.0784313725490,0.0,0.0,0.0,0.0,0.0,0.0
,,,,,,Categoría de producto,Costo,Fórmula,0,ooc_fesepsa.product_category_08290101,-96.0784313725490,0.0,0.0,0.0,0.0,0.0,0.0
,,,,,,Categoría de producto,Costo,Fórmula,0,ooc_fesepsa.product_category_08300101,-96.0784313725490,0.0,0.0,0.0,0.0,0.0,0.0
,,,,,,Categoría de producto,Costo,Fórmula,0,ooc_fesepsa.product_category_08320101,-96.0784313725490,0.0,0.0,0.0,0.0,0.0,0.0
,,,,,,Categoría de producto,Costo,Fórmula,0,ooc_fesepsa.product_category_08330101,-96.0784313725490,0.0,0.0,0.0,0.0,0.0,0.0
,,,,,,Categoría de producto,Costo,Fórmula,0,ooc_fesepsa.product_category_10030103,-96.0784313725490,0.0,0.0,0.0,0.0,0.0,0.0
,,,,,,Categoría de producto,Costo,Fórmula,0,ooc_fesepsa.product_category_10070101,-96.0784313725490,0.0,0.0,0.0,0.0,0.0,0.0
,,,,,,Categoría de producto,Costo,Fórmula,0,ooc_fesepsa.product_category_10310101,-96.0784313725490,0.0,0.0,0.0,0.0,0.0,0.0
,,,,,,Categoría de producto,Costo,Fórmula,0,ooc_fesepsa.product_category_10510101,-96.0784313725490,0.0,0.0,0.0,0.0,0.0,0.0
,,,,,,Categoría de producto,Costo,Fórmula,0,ooc_fesepsa.product_category_10610101,-96.0784313725490,0.0,0.0,0.0,0.0,0.0,0.0
,,,,,,Categoría de producto,Costo,Fórmula,0,ooc_fesepsa.product_category_11040101,-96.0784313725490,0.0,0.0,0.0,0.0,0.0,0.0
,,,,,,Categoría de producto,Costo,Fórmula,0,ooc_fesepsa.product_category_12010101,-96.0784313725490,0.0,0.0,0.0,0.0,0.0,0.0
,,,,,,Categoría de producto,Costo,Fórmula,0,ooc_fesepsa.product_category_12020101,-96.0784313725490,0.0,0.0,0.0,0.0,0.0,0.0
